广东电信,#genre#
CCTV1,udp://239.77.0.119:5146
CCTV1,udp://239.77.1.17:5146
CCTV1,udp://239.77.1.144:5146
CCTV1,udp://239.77.0.86:5146
CCTV1,udp://239.77.0.129:5146
CCTV1,udp://239.77.0.241:5146
CCTV1,udp://239.77.1.20:5146
CCTV1,udp://239.77.0.30:5146
CCTV10,udp://239.77.1.113:5146
CCTV10,udp://239.77.1.169:5146
CCTV10,udp://239.77.0.134:5146
CCTV10,udp://239.77.1.25:5146
CCTV10,udp://239.77.0.39:5146
CCTV11,udp://239.77.1.238:5146
CCTV11,udp://239.77.1.42:5146
CCTV11,udp://239.77.0.40:5146
CCTV12,udp://239.77.1.109:5146
CCTV12,udp://239.77.1.170:5146
CCTV12,udp://239.77.0.136:5146
CCTV12,udp://239.77.1.10:5146
CCTV12,udp://239.77.0.41:5146
CCTV13,udp://239.77.0.188:5146
CCTV13,udp://239.253.43.196:5146
CCTV13,udp://239.77.1.26:5146
CCTV13,udp://239.77.0.42:5146
CCTV14,udp://239.77.1.161:5146
CCTV14,udp://239.77.1.171:5146
CCTV14,udp://239.77.0.133:5146
CCTV14,udp://239.77.1.43:5146
CCTV14,udp://239.77.0.43:5146
CCTV15,udp://239.77.1.239:5146
CCTV15,udp://239.77.1.11:5146
CCTV15,udp://239.77.0.44:5146
CCTV16,udp://239.77.1.76:5146
CCTV16,udp://239.77.0.165:5146
CCTV16,udp://239.77.1.98:5146
CCTV17,udp://239.77.1.121:5146
CCTV17,udp://239.77.0.198:5146
CCTV17,udp://239.77.1.123:5146
CCTV17,udp://239.77.0.115:5146
CCTV2,udp://239.77.1.158:5146
CCTV2,udp://239.253.43.17:5146
CCTV2,udp://239.77.0.137:5146
CCTV2,udp://239.77.1.28:5146
CCTV2,udp://239.77.0.31:5146
CCTV3,udp://239.77.0.169:5146
CCTV3,udp://239.77.0.175:5146
CCTV3,udp://239.0.10.52:5052
CCTV3,udp://239.77.0.32:5146
CCTV4,udp://239.77.1.163:5146
CCTV4,udp://239.77.1.166:5146
CCTV4,udp://239.77.0.78:5146
CCTV4,udp://239.253.43.120:5146
CCTV4,udp://239.253.43.121:5146
CCTV4,udp://239.77.1.41:5146
CCTV4,udp://239.77.0.33:5146
CCTV4K,udp://239.77.0.194:5146
CCTV4K,udp://239.77.0.232:5146
CCTV4K,udp://239.77.0.174:5146
CCTV5,udp://239.77.0.170:5146
CCTV5,udp://239.77.0.177:5146
CCTV5,udp://239.0.10.53:5053
CCTV5,udp://239.77.0.34:5146
CCTV5+,udp://239.77.0.87:5146
CCTV5+,udp://239.77.1.31:5146
CCTV5+,udp://239.77.1.146:5146
CCTV5+,udp://239.77.1.147:5146
CCTV6,udp://239.77.0.171:5146
CCTV6,udp://239.77.0.178:5146
CCTV6,udp://239.0.10.54:5054
CCTV6,udp://239.77.0.35:5146
CCTV7,udp://239.77.1.159:5146
CCTV7,udp://239.77.1.167:5146
CCTV7,udp://239.77.0.138:5146
CCTV7,udp://239.77.1.24:5146
CCTV7,udp://239.77.0.36:5146
CCTV8,udp://239.77.0.172:5146
CCTV8,udp://239.77.0.181:5146
CCTV8,udp://239.0.10.55:5055
CCTV8,udp://239.77.0.37:5146
CCTV9,udp://239.77.1.160:5146
CCTV9,udp://239.77.1.168:5146
CCTV9,udp://239.77.0.135:5146
CCTV9,udp://239.77.1.65:5146
CCTV9纪录,udp://239.77.0.38:5146
CETV1,udp://239.77.1.222:5146
CETV1,udp://239.77.0.82:5146
CETV1,udp://239.77.1.46:5146
CETV2,udp://239.77.0.28:5146
CETV2,udp://239.77.1.69:5146
CETV4,udp://239.77.1.200:5146
CETV4,udp://239.253.43.40:5146
CETV4,udp://239.253.43.114:5146
CETV4,udp://239.77.0.29:5146
CETV4,udp://239.77.1.68:5146
CGTN,udp://239.77.0.45:5146
CGTN,udp://239.77.1.27:5146
CGTNDOCUMENTARY,udp://239.253.43.122:5146
CGTN阿拉伯语,udp://239.253.43.200:5146
CGTN俄语,udp://239.253.43.201:5146
CGTN法语,udp://239.77.0.228:5146
CGTN西班牙语,udp://239.77.0.221:5146
CGTN英语,udp://239.77.0.199:5146
CHC影迷电影,udp://239.77.0.27:5146
DOXTV,udp://239.77.1.155:5146
GTV网络棋牌,udp://239.253.43.38:5146
HZTV1,udp://239.77.1.232:5146
HZTV1,udp://239.77.0.247:5146
HZTV1,udp://239.77.1.154:5146
HZTV2,udp://239.77.1.233:5146
HZTV2,udp://239.77.0.248:5146
HZTV2,udp://239.77.1.173:5146
IPTV1,udp://239.77.1.75:5146
IPTV2,udp://239.77.1.63:5146
IPTV3,udp://239.77.1.64:5146
IPTV3+,udp://239.77.0.107:5146
IPTV3+,udp://239.77.1.78:5146
IPTV4,udp://239.77.1.56:5146
IPTV5+,udp://239.77.0.108:5146
IPTV5+,udp://239.77.1.77:5146
IPTV6+,udp://239.77.0.103:5146
IPTV6+,udp://239.77.1.138:5146
IPTV8+,udp://239.77.0.105:5146
IPTV8+,udp://239.77.1.82:5146
IPTV谍战剧场,udp://239.77.0.99:5146
IPTV谍战剧场,udp://239.77.1.83:5146
IPTV法治,udp://239.77.0.102:5146
IPTV法治,udp://239.77.1.86:5146
IPTV经典电影,udp://239.77.1.89:5146
IPTV魅力时尚,udp://239.77.1.88:5146
IPTV热播剧场,udp://239.77.1.90:5146
IPTV少儿动画,udp://239.77.1.91:5146
IPTV收视指南,udp://239.77.0.111:5146
IPTV相声小品,udp://239.77.0.100:5146
IPTV相声小品,udp://239.77.1.84:5146
IPTV野外,udp://239.77.0.101:5146
IPTV野外,udp://239.77.1.85:5146
爱体育,udp://239.77.1.116:5146
爱体育,udp://239.77.0.176:5146
安徽卫视,udp://239.77.0.50:5146
安徽卫视,udp://239.77.1.13:5146
安徽卫视,udp://239.77.1.92:5146
安徽卫视,udp://239.77.1.157:5146
安徽卫视,udp://239.77.0.183:5146
百事通,udp://239.253.43.118:5146
百事通,udp://239.253.43.116:5146
百事通,udp://239.253.43.115:5146
百事通,udp://239.253.43.117:5146
百事通,udp://239.253.43.119:5146
北京卫视,udp://239.77.0.51:5146
北京卫视,udp://239.77.1.14:5146
北京卫视,udp://239.77.1.4:5146
北京卫视,udp://239.77.1.151:5146
北京卫视,udp://239.77.0.91:5146
兵器科技,udp://239.253.43.18:5146
兵器科技,udp://239.253.43.9:5146
兵团卫视,udp://239.77.0.77:5146
兵团卫视,udp://239.77.1.80:5146
财富天下,udp://239.77.0.113:5146
财富天下,udp://239.77.1.81:5146
茶,udp://239.77.0.15:5146
茶频道高清,udp://239.77.1.207:5146
潮州民生,udp://239.253.43.75:5146
潮州综合,udp://239.253.43.70:5146
车迷频道,udp://239.77.1.203:5146
车迷频道,udp://239.253.43.41:5146
大湾区卫视,udp://239.77.0.215:5146
第一剧场,udp://239.253.43.28:5146
第一剧场,udp://239.253.43.15:5146
电视指南,udp://239.253.43.19:5146
电视指南,udp://239.253.43.10:5146
东方卫视,udp://239.77.0.49:5146
东方卫视,udp://239.77.1.48:5146
东方卫视,udp://239.77.1.218:5146
东方卫视,udp://239.77.1.156:5146
东方卫视,udp://239.77.0.98:5146
东莞生活资讯,udp://239.253.43.105:5146
东莞新闻综合,udp://239.253.43.104:5146
东南卫视,udp://239.77.0.65:5146
东南卫视,udp://239.77.1.1:5146
东南卫视,udp://239.77.1.213:5146
东南卫视,udp://239.77.1.104:5146
冬奥纪实高清,udp://239.77.1.110:5146
风云剧场,udp://239.253.43.26:5146
风云剧场,udp://239.253.43.16:5146
风云音乐,udp://239.253.43.29:5146
风云音乐,udp://239.253.43.6:5146
风云足球,udp://239.253.43.20:5146
风云足球,udp://239.253.43.14:5146
佛山公共,udp://239.253.43.48:5146
佛山公共,udp://239.253.43.53:5146
佛山南海,udp://239.253.43.49:5146
佛山南海,udp://239.253.43.54:5146
佛山顺德,udp://239.253.43.50:5146
佛山顺德,udp://239.253.43.55:5146
佛山影视,udp://239.253.43.51:5146
佛山影视,udp://239.253.43.56:5146
佛山综合,udp://239.253.43.52:5146
佛山综合,udp://239.253.43.57:5146
福建东南卫视,udp://239.77.0.146:5146
甘肃卫视,udp://239.77.0.76:5146
甘肃卫视,udp://239.77.1.57:5146
甘肃卫视,udp://239.77.0.189:5146
高尔夫网球,udp://239.253.43.22:5146
高尔夫网球,udp://239.253.43.12:5146
广东房产,udp://239.77.0.14:5146
广东公共,udp://239.77.0.5:5146
广东国际,udp://239.77.0.7:5146
广东民生,udp://239.77.0.225:5146
广东少儿,udp://239.77.0.12:5146
广东少儿,udp://239.77.0.250:5146
广东体育,udp://239.77.0.6:5146
广东体育,udp://239.77.0.168:5146
广东体育（深圳）,udp://239.77.1.97:5146
广东体育测试,udp://239.77.0.112:5146
广东卫视,udp://239.77.0.2:5146
广东卫视,udp://239.77.1.2:5146
广东卫视,udp://239.77.1.19:5146
广东卫视,udp://239.77.1.152:5146
广东卫视,udp://239.77.0.84:5146
广东卫视,udp://239.77.0.166:5146
广东新闻,udp://239.77.0.4:5146
广东新闻,udp://239.77.0.190:5146
广东新闻,udp://239.77.0.173:5146
广东移动,udp://239.77.0.20:5146
广东影视,udp://239.77.0.11:5146
广东影视,udp://239.77.0.217:5146
广东珠江,udp://239.77.0.3:5146
广东珠江,udp://239.77.1.94:5146
广东珠江,udp://239.77.0.1:5146
广东珠江,udp://239.77.0.114:5146
广东综艺 4K,udp://239.77.1.237:5146
广东综艺 4K50p,udp://239.77.1.236:5146
广东综艺 宽色域(4k),udp://239.77.0.246:5146
广东综艺 宽色域AVS2(4k) (AVS2),udp://239.77.0.252:5146
广东综艺(4k),udp://239.77.0.244:5146
广东综艺(4k),udp://239.77.0.245:5146
广视课堂 初二,udp://239.253.43.90:5146
广视课堂 初三,udp://239.253.43.91:5146
广视课堂 初一,udp://239.253.43.89:5146
广视课堂 高二,udp://239.253.43.93:5146
广视课堂 高一,udp://239.253.43.92:5146
广视课堂 小学二,udp://239.253.43.77:5146
广视课堂 小学六,udp://239.253.43.81:5146
广视课堂 小学三,udp://239.253.43.78:5146
广视课堂 小学四,udp://239.253.43.79:5146
广视课堂 小学五,udp://239.253.43.80:5146
广视课堂 小学一,udp://239.253.43.76:5146
广西卫视,udp://239.77.0.66:5146
广西卫视,udp://239.77.1.59:5146
广西卫视,udp://239.253.43.36:5146
广西卫视,udp://239.77.0.139:5146
广州法治,udp://239.253.43.69:5146
广州法治,udp://239.253.43.74:5146
广州新闻,udp://239.253.43.67:5146
广州新闻,udp://239.253.43.72:5146
广州影视,udp://239.253.43.68:5146
广州影视,udp://239.253.43.73:5146
广州综合,udp://239.253.43.66:5146
广州综合,udp://239.253.43.71:5146
贵州卫视,udp://239.77.0.59:5146
贵州卫视,udp://239.77.1.61:5146
贵州卫视,udp://239.77.1.221:5146
贵州卫视,udp://239.77.0.230:5146
国学,udp://239.77.0.226:5146
国学频道,udp://239.77.1.105:5146
哈哈炫动,udp://239.77.0.81:5146
哈哈炫动,udp://239.77.1.139:5146
海南卫视,udp://239.77.0.72:5146
海南卫视,udp://239.77.1.51:5146
海南卫视,udp://239.253.43.35:5146
海南卫视,udp://239.253.43.101:5146
河北卫视,udp://239.77.0.64:5146
河北卫视,udp://239.77.1.60:5146
河北卫视,udp://239.77.1.214:5146
河北卫视,udp://239.77.0.148:5146
河南卫视,udp://239.77.0.61:5146
河南卫视,udp://239.77.1.58:5146
河南卫视,udp://239.77.1.229:5146
河南卫视,udp://239.77.0.17:5146
河源公共,udp://239.253.43.216:5146
河源公共,udp://239.253.43.214:5146
河源综合,udp://239.253.43.215:5146
河源综合,udp://239.253.43.213:5146
黑龙江卫视,udp://239.77.0.58:5146
黑龙江卫视,udp://239.77.1.71:5146
黑龙江卫视,udp://239.77.1.6:5146
黑龙江卫视,udp://239.77.1.179:5146
黑龙江卫视,udp://239.77.0.93:5146
黑龙江卫视,udp://239.77.0.124:5146
湖北卫视,udp://239.77.0.56:5146
湖北卫视,udp://239.77.1.44:5146
湖北卫视,udp://239.77.1.93:5146
湖北卫视,udp://239.77.1.174:5146
湖北卫视,udp://239.77.0.95:5146
湖北卫视,udp://239.77.0.128:5146
湖南卫视,udp://239.77.0.46:5146
湖南卫视,udp://239.77.1.29:5146
湖南卫视,udp://239.77.1.5:5146
湖南卫视,udp://239.77.1.129:5146
湖南卫视,udp://239.77.0.88:5146
湖南卫视,udp://239.77.0.127:5146
怀旧剧场,udp://239.253.43.25:5146
怀旧剧场,udp://239.253.43.5:5146
环球旅游,udp://239.77.1.202:5146
环球奇观,udp://239.77.0.224:5146
环球奇观,udp://239.77.1.198:5146
吉林卫视,udp://239.77.0.67:5146
吉林卫视,udp://239.77.1.45:5146
吉林卫视,udp://239.77.1.111:5146
吉林卫视,udp://239.77.0.150:5146
吉林延边卫视,udp://239.77.0.10:5146
嘉佳卡通,udp://239.77.0.13:5146
嘉佳卡通,udp://239.77.1.15:5146
嘉佳卡通,udp://239.77.0.179:5146
江门公共,udp://239.77.0.196:5146
江门教育,udp://239.77.0.197:5146
江门教育高清,udp://239.77.0.203:5146
江门侨乡生活,udp://239.77.0.202:5146
江门综合,udp://239.77.0.195:5146
江门综合,udp://239.77.0.201:5146
江苏卫视,udp://239.77.0.48:5146
江苏卫视,udp://239.77.1.40:5146
江苏卫视,udp://239.77.1.18:5146
江苏卫视,udp://239.77.1.149:5146
江苏卫视,udp://239.77.0.90:5146
江苏卫视,udp://239.77.0.126:5146
江西卫视,udp://239.77.0.54:5146
江西卫视,udp://239.77.1.73:5146
江西卫视,udp://239.77.1.219:5146
江西卫视,udp://239.77.0.149:5146
揭阳公共,udp://239.77.0.158:5146
揭阳生活,udp://239.77.0.251:5146
揭阳综合,udp://239.77.0.229:5146
金鹰纪实,udp://239.77.1.217:5146
金鹰纪实测试,udp://239.77.0.160:5146
金鹰纪实测试,udp://239.77.0.162:5146
金鹰卡通,udp://239.77.0.80:5146
金鹰卡通,udp://239.77.1.52:5146
金鹰卡通,udp://239.77.0.164:5146
经典电影,udp://239.77.0.104:5146
经济科教,udp://239.77.0.8:5146
经济科教,udp://239.77.0.85:5146
经济科教,udp://239.77.0.167:5146
靓妆,udp://239.77.0.212:5146
靓妆,udp://239.77.1.118:5146
九屏同播,udp://239.77.1.234:5146
卡酷少儿,udp://239.77.0.79:5146
卡酷少儿,udp://239.77.1.50:5146
客家生活,udp://239.253.43.124:5146
快乐垂钓,udp://239.77.0.145:5146
快乐垂钓高清,udp://239.77.1.119:5146
老故事,udp://239.77.0.220:5146
老故事,udp://239.77.1.197:5146
梨园,udp://239.77.0.210:5146
梨园频道高清,udp://239.77.1.100:5146
辽宁卫视,udp://239.77.0.57:5146
辽宁卫视,udp://239.77.1.62:5146
辽宁卫视,udp://239.77.1.103:5146
辽宁卫视,udp://239.77.0.123:5146
辽宁卫视,udp://239.77.0.161:5146
岭南戏曲,udp://239.77.0.16:5146
岭南戏曲,udp://239.77.0.122:5146
茂名公共,udp://239.77.0.205:5146
茂名公共,udp://239.77.0.207:5146
茂名综合,udp://239.77.0.204:5146
茂名综合,udp://239.77.0.206:5146
梅州1,udp://239.253.43.123:5146
魅力时尚,udp://239.77.0.110:5146
南方购物,udp://239.77.0.22:5146
南方购物精选,udp://239.77.0.19:5146
南方卫视,udp://239.77.0.9:5146
南方卫视（上星）,udp://239.77.1.12:5146
南国都市 4K,udp://239.77.0.233:5146
内蒙古卫视,udp://239.77.0.70:5146
内蒙古卫视,udp://239.77.1.55:5146
宁夏卫视,udp://239.77.0.73:5146
宁夏卫视,udp://239.77.1.47:5146
女性时尚,udp://239.253.43.23:5146
女性时尚,udp://239.253.43.8:5146
汽摩,udp://239.77.0.209:5146
汽摩,udp://239.77.1.205:5146
青海卫视,udp://239.77.0.71:5146
青海卫视,udp://239.77.1.70:5146
青海卫视,udp://239.253.43.125:5146
清远公共,udp://239.253.43.32:5146
清远文旅生活,udp://239.253.43.34:5146
清远新闻综合,udp://239.253.43.31:5146
清远新闻综合,udp://239.253.43.33:5146
求索纪录,udp://239.77.0.21:5146
求索科学高清,udp://239.77.0.240:5146
求索生活,udp://239.77.0.153:5146
热播剧场,udp://239.77.0.106:5146
三沙卫视,udp://239.77.0.152:5146
三沙卫视,udp://239.77.1.117:5146
三沙卫视,udp://239.253.43.113:5146
厦门卫视,udp://239.77.0.96:5146
山东教育,udp://239.77.0.83:5146
山东教育卫视,udp://239.77.1.35:5146
山东卫视,udp://239.77.0.53:5146
山东卫视,udp://239.77.1.66:5146
山东卫视,udp://239.77.1.142:5146
山东卫视,udp://239.77.1.153:5146
山东卫视,udp://239.77.0.94:5146
山东卫视,udp://239.77.0.132:5146
山西卫视,udp://239.77.0.69:5146
山西卫视,udp://239.77.1.74:5146
陕西卫视,udp://239.77.0.68:5146
陕西卫视,udp://239.77.1.54:5146
汕头经济生活,udp://239.253.43.46:5146
汕头文旅体育,udp://239.253.43.47:5146
汕头综合,udp://239.253.43.45:5146
汕尾文化生活,udp://239.77.0.187:5146
汕尾新闻综合,udp://239.77.0.25:5146
上海纪实,udp://239.77.1.216:5146
上海纪实,udp://239.77.0.147:5146
韶关公共,udp://239.77.0.118:5146
韶关新闻综合,udp://239.77.0.117:5146
韶关综合,udp://239.77.0.116:5146
少儿动画,udp://239.77.0.109:5146
深圳宝安第一课,udp://239.77.1.225:5146
深圳宝安频道,udp://239.77.1.67:5146
深圳宝安频道（音频）,udp://239.77.1.206:5146
深圳财经生活,udp://239.77.1.22:5146
深圳财经生活,udp://239.77.1.242:5146
深圳电视剧频道,udp://239.77.1.7:5146
深圳电视剧频道,udp://239.77.1.177:5146
深圳电视剧频道,udp://239.77.1.125:5146
深圳东部频道高清,udp://239.77.1.224:5146
深圳都市频道,udp://239.77.1.34:5146
深圳都市频道,udp://239.77.1.176:5146
深圳都市频道,udp://239.77.1.124:5146
深圳公共频道,udp://239.77.1.9:5146
深圳公共频道,udp://239.77.1.178:5146
深圳公共频道,udp://239.77.1.126:5146
深圳龙岗频道,udp://239.77.1.223:5146
深圳少儿频道,udp://239.77.1.38:5146
深圳少儿频道,udp://239.77.1.244:5146
深圳体育健康,udp://239.77.1.8:5146
深圳体育健康,udp://239.77.1.128:5146
深圳体育健康,udp://239.77.1.140:5146
深圳卫视,udp://239.77.0.55:5146
深圳卫视,udp://239.77.1.21:5146
深圳卫视,udp://239.77.1.3:5146
深圳卫视,udp://239.77.1.148:5146
深圳卫视,udp://239.77.0.92:5146
深圳卫视,udp://239.77.0.130:5146
深圳宜和购物,udp://239.77.1.39:5146
深圳宜和购物,udp://239.77.1.87:5146
深圳移动电视,udp://239.77.1.175:5146
深圳娱乐频道,udp://239.77.1.36:5146
深圳娱乐频道,udp://239.77.1.243:5146
深圳众创TV,udp://239.77.1.247:5146
生态环境,udp://239.77.1.201:5146
生态环境,udp://239.253.43.42:5146
世界地理,udp://239.253.43.24:5146
世界地理,udp://239.253.43.7:5146
书画频道,udp://239.77.1.115:5146
四川卫视,udp://239.77.0.60:5146
四川卫视,udp://239.77.1.30:5146
四川卫视,udp://239.77.1.215:5146
四川卫视,udp://239.77.0.159:5146
四川卫视,udp://239.77.0.163:5146
四海钓鱼,udp://239.77.1.137:5146
四屏同播,udp://239.77.1.107:5146
天津卫视,udp://239.77.0.52:5146
天津卫视,udp://239.77.1.37:5146
天津卫视,udp://239.77.1.141:5146
天津卫视,udp://239.77.1.182:5146
天津卫视,udp://239.77.0.97:5146
天津卫视,udp://239.77.0.131:5146
天元围棋,udp://239.253.43.98:5146
文物宝库,udp://239.77.0.227:5146
文物宝库,udp://239.77.1.120:5146
武术世界,udp://239.77.0.216:5146
武术世界,udp://239.77.1.108:5146
西藏卫视,udp://239.77.0.74:5146
西藏卫视,udp://239.77.1.49:5146
先锋乒羽,udp://239.77.1.208:5146
现代教育,udp://239.77.0.18:5146
现代教育,udp://239.77.0.213:5146
香山文化,udp://239.253.43.63:5146
新动漫,udp://239.77.1.136:5146
新疆卫视,udp://239.77.0.75:5146
新疆卫视,udp://239.77.1.53:5146
徐闻综合,udp://239.253.43.112:5146
延边卫视,udp://239.77.1.99:5146
央视台球,udp://239.253.43.21:5146
央视台球,udp://239.253.43.11:5146
央视文化精品,udp://239.253.43.27:5146
央视文化精品,udp://239.253.43.13:5146
优漫卡通,udp://239.77.0.222:5146
优漫卡通,udp://239.77.1.79:5146
优优宝贝,udp://239.77.1.193:5146
优优宝贝,udp://239.253.43.39:5146
游戏竞技,udp://239.77.0.211:5146
游戏竞技,udp://239.77.1.112:5146
云浮公共,udp://239.253.43.194:5146
云浮文旅,udp://239.77.0.254:5146
云浮综合,udp://239.253.43.195:5146
云浮综合,udp://239.77.0.253:5146
云南卫视,udp://239.77.0.62:5146
云南卫视,udp://239.77.1.72:5146
云南卫视,udp://239.253.43.37:5146
云南卫视,udp://239.253.43.100:5146
早期教育,udp://239.77.0.180:5146
湛江,udp://239.77.0.120:5146
湛江公共,udp://239.77.0.121:5146
湛江公共,udp://239.77.0.140:5146
湛江新闻综合,udp://239.77.0.141:5146
肇庆公共,udp://239.253.43.4:5146
肇庆生活服务,udp://239.253.43.2:5146
肇庆综合,udp://239.253.43.3:5146
肇庆综合,udp://239.253.43.1:5146
浙江卫视,udp://239.77.0.47:5146
浙江卫视,udp://239.77.1.32:5146
浙江卫视,udp://239.77.1.33:5146
浙江卫视,udp://239.77.1.150:5146
浙江卫视,udp://239.77.0.89:5146
浙江卫视,udp://239.77.0.125:5146
证券服务,udp://239.77.1.135:5146
证券服务,udp://239.253.43.58:5146
中国交通,udp://239.77.1.249:5146
中国教育1,udp://239.77.0.200:5146
中国天气,udp://239.77.1.143:5146
中华特产,udp://239.77.1.204:5146
中山公共,udp://239.253.43.60:5146
中山教育,udp://239.253.43.61:5146
中山教育高清,udp://239.253.43.64:5146
中山综合,udp://239.253.43.59:5146
中山综合,udp://239.253.43.62:5146
中学生,udp://239.77.1.195:5146
重庆卫视,udp://239.77.0.63:5146
重庆卫视,udp://239.77.1.16:5146
重庆卫视,udp://239.77.1.162:5146
重庆卫视,udp://239.77.0.182:5146
重庆卫视高清 (CAVS),udp://239.77.1.210:5146
珠海1,udp://239.77.0.155:5146
珠海1,udp://239.77.1.230:5146
珠海2,udp://239.77.0.154:5146
珠海2,udp://239.77.1.231:5146
环球奇观,udp://239.253.43.126:5146
发现之旅,udp://239.253.43.127:5146
广东移动,#genre#
肇庆生活服务高清,udp://239.11.0.54:1025
CGTN俄语高清,udp://239.11.0.108:1025
CCTV央视台球高清,udp://239.11.0.60:1025
CCTV-17农村农业高清,udp://239.10.0.244:1025
CCTV-11戏曲高清,udp://239.11.0.24:1025
CCTV央视精品高清,udp://239.21.0.77:3648
江门综合高清,udp://239.10.0.219:1025
潮州综合高清,udp://239.21.0.145:3924
河源新闻综合高清,udp://239.21.0.48:3532
广东移动高清,udp://239.20.0.133:2064
CGTN西语高清,udp://239.11.0.105:1025
佛山南海高清,udp://239.11.0.115:1025
浙江卫视高清,udp://239.10.0.179:1025
云浮综合高清,udp://239.11.0.96:1025
CCTV-6电影高清,udp://239.10.0.103:1025
天津卫视高清,udp://239.10.0.181:1025
珠海新闻综合高清,udp://239.10.0.242:1025
四川卫视高清,udp://239.10.0.204:1025
重庆卫视高清,udp://239.10.0.205:1025
茂名综合高清,udp://239.10.0.238:1025
潮州民生高清,udp://239.21.0.146:3928
肇庆新闻综合高清,udp://239.11.0.53:1025
广东影视高清,udp://239.11.0.79:1025
CCTV-2财经高清,udp://239.10.0.207:1025
江门侨乡生活高清,udp://239.10.0.139:1025
CCTV-4中文国际高清,udp://239.10.0.245:1025
广东珠江高清,udp://239.10.0.62:1025
CCTV卫生健康高清,udp://239.11.0.185:1025
CCTV-4美洲高清,udp://239.11.0.102:1025
佛山影视高清,udp://239.11.0.117:1025
汕尾文化生活高清,udp://239.21.0.90:3700
云浮文旅高清,udp://239.11.0.97:1025
茶频道高清,udp://239.21.0.120:3824
惠州公共高清,udp://239.21.0.28:3452
广州影视高清,udp://239.11.0.140:1025
汕头综合高清,udp://239.21.0.101:3744
深圳卫视高清,udp://239.10.0.132:1025
广东公共高清,udp://239.11.0.80:1025
黑龙江卫视高清,udp://239.10.0.133:1025
中山综合高清,udp://239.11.0.122:1025
CCTV-9纪录高清,udp://239.10.0.209:1025
广州南国都市4K,udp://239.21.0.132:3872
辽宁卫视高清,udp://239.10.0.185:1025
北京卫视高清,udp://239.10.0.131:1025
东莞新闻综合高清,udp://239.21.0.137:3892
CCTV-8电视剧高清,udp://239.10.0.104:1025
CCTV央视网球高清,udp://239.11.0.61:1025
云南卫视高清,udp://239.11.0.171:1025
惠州综合高清,udp://239.21.0.27:3448
CCTV-12社会与法高清,udp://239.10.0.211:1025
CCTV第一剧场高清,udp://239.11.0.67:1025
湖南卫视高清,udp://239.10.0.115:1025
揭阳生活高清,udp://239.21.0.92:3708
广东体育高清,udp://239.20.0.103:2004
广东新闻高清,udp://239.10.0.199:1025
广东珠江高清,udp://239.10.0.63:1025
教育卫视高清,udp://239.10.0.223:1025
嘉佳卡通高清,udp://239.21.0.94:3716
汕头经济生活高清,udp://239.21.0.102:3748
CCTV-14少儿高清,udp://239.10.0.212:1025
东方卫视高清,udp://239.10.0.183:1025
佛山顺德高清,udp://239.11.0.116:1025
河源公共高清,udp://239.21.0.49:3536
求索记录高清,udp://239.11.0.128:1025
安徽卫视高清,udp://239.10.0.203:1025
梅州客家生活高清,udp://239.21.0.150:3944
广东经济科教高清,udp://239.10.0.112:1025
湖北卫视高清,udp://239.10.0.134:1025
广州综合高清,udp://239.11.0.138:1025
江苏卫视高清,udp://239.10.0.180:1025
江西卫视高清,udp://239.10.0.80:1025
中国交通高清,udp://239.10.0.72:1025
东莞生活资讯高清,udp://239.21.0.138:3896
山东卫视高清,udp://239.10.0.182:1025
海南卫视高清,udp://239.11.0.172:1025
广东少儿高清,udp://239.11.0.81:1025
揭阳综合高清,udp://239.21.0.91:3704
CCTV-5体育高清,udp://239.10.0.102:1025
广东卫视高清,udp://239.10.0.111:1025
CCTV-1综合高清,udp://239.10.0.114:1025
CCTV电视指南高清,udp://239.11.0.58:1025
广东经济科教高清,udp://239.10.0.46:1025
CCTV风云足球高清,udp://239.11.0.59:1025
CCTV怀旧剧场高清,udp://239.11.0.64:1025
CCTV风云音乐高清,udp://239.11.0.68:1025
CCTV-15音乐高清,udp://239.11.0.25:1025
湖南卫视高清,udp://239.10.0.49:1025
CCTV兵器科技高清,udp://239.11.0.57:1025
吉林卫视高清,udp://239.10.0.81:1025
河北卫视高清,udp://239.10.0.79:1025
茂名文化生活高清,udp://239.11.0.99:1025
纪实人文高清,udp://239.10.0.78:1025
佛山综合高清,udp://239.11.0.118:1025
东南卫视高清,udp://239.10.0.77:1025
中山香山文化高清,udp://239.11.0.123:1025
CCTV女性时尚高清,udp://239.11.0.62:1025
汕头文旅体育高清,udp://239.21.0.103:3752
湛江公共高清,udp://239.10.0.254:1025
CGTN西语高清,udp://239.21.0.111:3800
清远综合高清,udp://239.11.0.74:1025
CCTV世界地理高清,udp://239.11.0.63:1025
广州新闻高清,udp://239.11.0.139:1025
CGTN纪录高清,udp://239.21.0.110:3780
CCTV文化精品高清,udp://239.11.0.66:1025
天津卫视高清,udp://239.10.0.55:1025
深圳卫视高清,udp://239.10.0.52:1025
贵州卫视高清,udp://239.10.0.222:1025
快乐垂钓高清,udp://239.11.0.131:1025
早期教育高清,udp://239.11.0.100:1025
CHC影迷电影高清,udp://239.21.0.119:3820
广州法治高清,udp://239.11.0.141:1025
大湾区卫视高清,udp://239.11.0.78:1025
CGTN阿语高清,udp://239.11.0.107:1025
CCTV风云剧场高清,udp://239.11.0.65:1025
IPTV5+高清,udp://239.10.0.218:1025
黑龙江卫视高清,udp://239.10.0.53:1025
清远文旅生活高清,udp://239.11.0.75:1025
CCTV-16奥林匹克高清,udp://239.11.0.126:1025
湖北卫视高清,udp://239.10.0.54:1025
韶关综合高清,udp://239.11.0.84:1025
金鹰纪实高清,udp://239.10.0.206:1025
湛江新闻综合高清,udp://239.10.0.253:1025
CCTV-10科教高清,udp://239.10.0.210:1025
CGTN纪录高清,udp://239.11.0.104:1025
四川卫视高清,udp://239.10.0.60:1025
梅州综合高清,udp://239.21.0.149:3940
CCTV-4欧洲高清,udp://239.11.0.101:1025
金鹰卡通高清,udp://239.11.0.125:1025
广东体育高清,udp://239.10.0.47:1025
汕尾新闻综合高清,udp://239.21.0.89:3696
江苏卫视高清,udp://239.10.0.51:1025
广西卫视高清,udp://239.10.0.246:1025
佛山公共高清,udp://239.11.0.114:1025
CGTN英语高清,udp://239.11.0.103:1025
河南卫视高清,udp://239.11.0.94:1025
CCTV-3综艺高清,udp://239.10.0.101:1025
CCTV-1综合高清,udp://239.20.0.104:2006
广东卫视高清,udp://239.20.0.101:2000
广东珠江高清,udp://239.20.0.64:3144
广东新闻高清,udp://239.21.0.93:3712
广东民生高清,udp://239.21.0.86:3684
广东经济科教高清,udp://239.20.0.102:2002
大湾区卫视高清,udp://239.21.0.84:3676
广东影视高清,udp://239.21.0.85:3680
广东少儿高清,udp://239.21.0.87:3688
岭南戏曲高清,udp://239.21.0.147:3932
现代教育高清,udp://239.21.0.148:3936
CCTV-2财经高清,udp://239.20.0.197:2192
CCTV-3综艺高清,udp://239.20.0.28:3292
CCTV-4中文国际高清,udp://239.20.0.16:3340
CCTV-5体育高清,udp://239.20.0.30:3284
CCTV-6电影高清,udp://239.20.0.29:3288
CCTV-7军事农业高清,udp://239.20.0.198:2194
CCTV-8电视剧高清,udp://239.20.0.31:3280
CCTV-9纪录高清,udp://239.20.0.199:2196
CCTV-10科教高清,udp://239.20.0.200:2198
CCTV-11戏曲高清,udp://239.21.0.35:3480
CCTV-12社会与法高清,udp://239.20.0.201:2200
CCTV-13新闻高清,udp://239.21.0.88:3692
CCTV-14少儿高清,udp://239.20.0.202:2202
CCTV-15音乐高清,udp://239.21.0.36:3484
CCTV-17农村农业高清,udp://239.20.0.7:3376
湖南卫视高清,udp://239.20.0.105:2008
浙江卫视高清,udp://239.20.0.169:2136
江苏卫视高清,udp://239.20.0.170:2138
东方卫视高清,udp://239.20.0.173:2144
安徽卫视高清,udp://239.20.0.193:2184
北京卫视高清,udp://239.20.0.121:2040
江西卫视高清,udp://239.20.0.55:3180
深圳卫视高清,udp://239.20.0.122:2042
河南卫视高清,udp://239.21.0.104:3756
云南卫视高清,udp://239.21.0.133:3876
青海卫视高清,udp://239.21.0.144:3920
海南卫视高清,udp://239.21.0.134:3880
甘肃卫视高清,udp://239.21.0.141:3908
金鹰卡通高清,udp://239.21.0.115:3804
三沙卫视高清,udp://239.21.0.143:3916
CETV-4高清,udp://239.21.0.142:3912
CCTV-5+高清,udp://239.20.0.203:2204
IPTV5+高清,udp://239.20.0.208:2214
CCTV-16奥林匹克高清,udp://239.21.0.116:3808
CCTV-4欧洲高清,udp://239.21.0.107:3768
CCTV-4美洲高清,udp://239.21.0.108:3772
CGTN英语高清,udp://239.21.0.109:3776
CGTN法语高清,udp://239.21.0.112:3788
CGTN阿语高清,udp://239.21.0.113:3792
CGTN俄语高清,udp://239.21.0.114:3796
黑龙江卫视高清,udp://239.20.0.123:2044
湖北卫视高清,udp://239.20.0.124:2046
天津卫视高清,udp://239.20.0.171:2140
山东卫视高清,udp://239.20.0.172:2142
辽宁卫视高清,udp://239.20.0.175:2148
四川卫视高清,udp://239.20.0.194:2186
金鹰纪实高清,udp://239.20.0.196:2190
重庆卫视高清,udp://239.20.0.195:2188
贵州卫视高清,udp://239.20.0.212:2222
CETV-1高清,udp://239.20.0.213:2224
中国交通高清,udp://239.20.0.68:3128
东南卫视高清,udp://239.20.0.58:3168
纪实人文高清,udp://239.20.0.57:3172
河北卫视高清,udp://239.20.0.56:3176
吉林卫视高清,udp://239.20.0.54:3184
广西卫视高清,udp://239.20.0.15:3344
CCTV兵器科技高清,udp://239.21.0.80:3660
CCTV电视指南高清,udp://239.21.0.81:3664
CCTV风云足球高清,udp://239.21.0.70:3620
CCTV央视台球高清,udp://239.21.0.71:3624
CCTV女性时尚高清,udp://239.21.0.73:3632
CCTV世界地理高清,udp://239.21.0.74:3636
CCTV怀旧剧场高清,udp://239.21.0.75:3640
CCTV风云剧场高清,udp://239.21.0.76:3644
CCTV第一剧场高清,udp://239.21.0.78:3652
CCTV风云音乐高清,udp://239.21.0.79:3656
早期教育高清,udp://239.21.0.106:3764
广东体育高清,udp://239.10.0.113:1025
广东嘉佳卡通高清,udp://239.10.0.200:1025
岭南戏曲高清,udp://239.11.0.180:1025
现代教育高清,udp://239.11.0.181:1025
青海卫视高清,udp://239.11.0.179:1025
甘肃卫视高清,udp://239.11.0.175:1025
三沙卫视高清,udp://239.11.0.177:1025
CETV-4高清,udp://239.11.0.176:1025
CGTN法语高清,udp://239.11.0.106:1025
CCTV-1综合高清,udp://239.20.0.96:3016
广东卫视,udp://239.20.0.131:2060
广东卫视高清,udp://239.20.0.99:3004
广东珠江,udp://239.20.0.111:2020
广东珠江高清,udp://239.20.0.63:3148
广东新闻,udp://239.20.0.112:2022
广东民生,udp://239.20.0.113:2024
广东体育,udp://239.20.0.114:2026
广东体育高清,udp://239.20.0.97:3012
广东经济科教,udp://239.20.0.191:2180
广东经济科教高清,udp://239.20.0.98:3008
大湾区卫视,udp://239.20.0.125:2048
广东影视,udp://239.20.0.117:2032
广东少儿,udp://239.20.0.118:2034
广东嘉佳卡通,udp://239.20.0.119:2036
岭南戏曲,udp://239.20.0.115:2028
现代教育,udp://239.20.0.128:2054
CCTV-1综合,udp://239.20.0.192:2182
CCTV-2财经,udp://239.20.0.176:2150
CCTV-3综艺,udp://239.20.0.27:3296
CCTV-4中文国际,udp://239.20.0.177:2152
CCTV-5体育,udp://239.20.0.26:3300
CCTV-6电影,udp://239.20.0.25:3304
CCTV-7军事农业,udp://239.20.0.178:2154
CCTV-8电视剧,udp://239.20.0.24:3308
CCTV-9纪录,udp://239.20.0.179:2156
CCTV-10科教,udp://239.20.0.180:2158
CCTV-11戏曲,udp://239.20.0.181:2160
CCTV-12社会与法,udp://239.20.0.182:2162
CCTV-13新闻,udp://239.20.0.183:2164
CCTV-14少儿,udp://239.20.0.184:2166
CCTV-15音乐,udp://239.20.0.185:2168
中国国际电视台,udp://239.20.0.186:2170
CCTV-17农村农业,udp://239.20.0.8:3372
湖南卫视,udp://239.20.0.135:2068
湖南卫视高清,udp://239.20.0.95:3020
浙江卫视,udp://239.20.0.106:2010
江苏卫视,udp://239.20.0.107:2012
东方卫视,udp://239.20.0.108:2014
安徽卫视,udp://239.20.0.136:2070
北京卫视,udp://239.20.0.137:2072
江西卫视,udp://239.20.0.138:2074
深圳卫视,udp://239.20.0.134:2066
河南卫视,udp://239.20.0.144:2086
云南卫视,udp://239.20.0.145:2088
陕西卫视,udp://239.20.0.151:2100
山西卫视,udp://239.20.0.152:2102
内蒙古卫视,udp://239.20.0.153:2104
青海卫视,udp://239.20.0.154:2106
海南卫视,udp://239.20.0.155:2108
宁夏卫视,udp://239.20.0.156:2110
西藏卫视,udp://239.20.0.157:2112
新疆卫视,udp://239.20.0.158:2114
甘肃卫视,udp://239.20.0.159:2116
兵团卫视,udp://239.20.0.160:2118
卡酷动画,udp://239.20.0.162:2122
金鹰卡通,udp://239.20.0.163:2124
炫动卡通,udp://239.20.0.164:2126
山东教育,udp://239.20.0.166:2130
财富天下,udp://239.20.0.167:2132
厦门卫视,udp://239.20.0.168:2134
三沙卫视,udp://239.20.0.52:3192
延边卫视,udp://239.20.0.51:3216
CETV-2,udp://239.21.0.46:3524
CETV-4,udp://239.21.0.47:3528
黑龙江卫视高清,udp://239.20.0.91:3036
湖北卫视高清,udp://239.20.0.90:3040
天津卫视高清,udp://239.20.0.89:3044
金鹰纪实,udp://239.20.0.85:3060
IPTV谍战剧场,udp://239.20.0.228:2254
IPTV相声小品,udp://239.20.0.229:2256
IPTV野外,udp://239.20.0.230:2258
IPTV法治,udp://239.20.0.231:2260
IPTV6+,udp://239.20.0.232:2262
经典电影,udp://239.20.0.233:2264
IPTV8+,udp://239.20.0.234:2266
热播剧场,udp://239.20.0.235:2268
IPTV3+,udp://239.20.0.236:2270
IPTV5+,udp://239.20.0.237:2272
IPTV少儿动画,udp://239.20.0.238:2274
IPTV魅力时尚,udp://239.20.0.239:2276
汽摩,udp://239.20.0.222:2242
书画,udp://239.21.0.140:3904
老故事,udp://239.20.0.227:2252
中学生,udp://239.21.0.139:3900
环球奇观,udp://239.20.0.245:2288
国学频道,udp://239.20.0.247:2292
发现之旅,udp://239.21.0.151:3948
广东卫视,udp://239.10.0.141:1025
广东珠江,udp://239.10.0.121:1025
广东新闻,udp://239.10.0.122:1025
广东民生,udp://239.10.0.123:1025
广东体育,udp://239.10.0.124:1025
广东经济科教,udp://239.10.0.201:1025
大湾区卫视,udp://239.10.0.135:1025
广东影视,udp://239.10.0.127:1025
广东少儿,udp://239.10.0.128:1025
广东嘉佳卡通,udp://239.10.0.129:1025
广东移动,udp://239.10.0.143:1025
岭南戏曲,udp://239.10.0.125:1025
现代教育,udp://239.10.0.138:1025
CCTV-1综合,udp://239.10.0.202:1025
CCTV-2财经,udp://239.10.0.186:1025
CCTV-3综艺,udp://239.10.0.107:1025
CCTV-4中文国际,udp://239.10.0.187:1025
CCTV-5体育,udp://239.10.0.108:1025
CCTV-6电影,udp://239.10.0.109:1025
CCTV-7军事农业,udp://239.10.0.188:1025
CCTV-8电视剧,udp://239.10.0.110:1025
CCTV-9纪录,udp://239.10.0.189:1025
CCTV-10科教,udp://239.10.0.190:1025
CCTV-11戏曲,udp://239.10.0.191:1025
CCTV-12社会与法,udp://239.10.0.192:1025
CCTV-13新闻,udp://239.10.0.193:1025
CCTV-14少儿,udp://239.10.0.194:1025
CCTV-15音乐,udp://239.10.0.195:1025
中国国际电视台,udp://239.10.0.196:1025
CCTV-17农村农业,udp://239.10.0.243:1025
湖南卫视,udp://239.10.0.145:1025
浙江卫视,udp://239.10.0.116:1025
江苏卫视,udp://239.10.0.117:1025
东方卫视,udp://239.10.0.118:1025
安徽卫视,udp://239.10.0.146:1025
北京卫视,udp://239.10.0.147:1025
江西卫视,udp://239.10.0.148:1025
深圳卫视,udp://239.10.0.144:1025
河南卫视,udp://239.10.0.154:1025
云南卫视,udp://239.10.0.155:1025
陕西卫视,udp://239.10.0.161:1025
山西卫视,udp://239.10.0.162:1025
内蒙古卫视,udp://239.10.0.163:1025
青海卫视,udp://239.10.0.164:1025
海南卫视,udp://239.10.0.165:1025
宁夏卫视,udp://239.10.0.166:1025
西藏卫视,udp://239.10.0.167:1025
新疆卫视,udp://239.10.0.168:1025
甘肃卫视,udp://239.10.0.169:1025
兵团卫视,udp://239.10.0.170:1025
卡酷动画,udp://239.10.0.172:1025
金鹰卡通,udp://239.10.0.173:1025
炫动卡通,udp://239.10.0.174:1025
山东教育,udp://239.10.0.176:1025
财富天下,udp://239.10.0.177:1025
厦门卫视,udp://239.10.0.178:1025
三沙卫视,udp://239.10.0.83:1025
延边卫视,udp://239.10.0.140:1025
CETV-2,udp://239.11.0.35:1025
CETV-4,udp://239.11.0.36:1025
IPTV谍战剧场,udp://239.10.0.8:1025
IPTV相声小品,udp://239.10.0.9:1025
IPTV野外,udp://239.10.0.10:1025
IPTV法治,udp://239.10.0.11:1025
IPTV6+,udp://239.10.0.12:1025
经典电影,udp://239.10.0.13:1025
IPTV8+,udp://239.10.0.14:1025
热播剧场,udp://239.10.0.15:1025
IPTV3+,udp://239.10.0.16:1025
IPTV5+,udp://239.10.0.17:1025
IPTV少儿动画,udp://239.10.0.18:1025
IPTV魅力时尚,udp://239.10.0.19:1025
汽摩,udp://239.10.0.232:1025
书画,udp://239.11.0.174:1025
老故事,udp://239.10.0.33:1025
中学生,udp://239.11.0.173:1025
环球奇观,udp://239.10.0.36:1025
国学频道,udp://239.10.0.38:1025
发现之旅,udp://239.11.0.182:1025
河源新闻综合,udp://239.21.0.50:3540
揭阳综合,udp://239.21.0.82:3668
揭阳生活,udp://239.21.0.83:3672
佛山南海,udp://239.21.0.95:3720
汕头综合,udp://239.21.0.98:3732
汕头经济生活,udp://239.21.0.99:3736
汕头文旅体育,udp://239.21.0.100:3740
广东综艺4K,udp://239.20.0.60:3160
汕尾新闻综合,udp://239.20.0.23:3312
汕尾文化生活,udp://239.20.0.22:3316
天津卫视,udp://239.20.0.110:2018
山东卫视,udp://239.20.0.109:2016
湖北卫视,udp://239.20.0.139:2076
辽宁卫视,udp://239.20.0.140:2078
黑龙江卫视,udp://239.20.0.141:2080
贵州卫视,udp://239.20.0.142:2082
四川卫视,udp://239.20.0.143:2084
重庆卫视,udp://239.20.0.146:2090
河北卫视,udp://239.20.0.147:2092
东南卫视,udp://239.20.0.148:2094
广西卫视,udp://239.20.0.149:2096
吉林卫视,udp://239.20.0.150:2098
深圳卫视高清,udp://239.20.0.92:3032
CCTV-1综合高清,udp://239.20.0.32:3276
广东4k超高清4K,udp://239.20.0.61:3156
广东南方购物高清,udp://239.20.0.116:2030
CCTV高尔夫·网球高清,udp://239.21.0.72:3628
求索纪录高清,udp://239.21.0.118:3816
CCTV-4k超高清4K,udp://239.21.0.123:3836
CCTV-4k超高清4K,udp://239.21.0.124:3840
东莞新闻综合,udp://239.21.0.135:3884
东莞生活资讯,udp://239.21.0.136:3888
广东卫视高清,udp://239.10.0.45:1025
CCTV-1综合高清,udp://239.10.0.48:1025
咪咕赛事4K,udp://239.10.0.68:1025
CCTV-1综合高清,udp://239.10.0.100:1025
CCTV-13 新闻高清,udp://239.10.0.198:1025
CCTV-7 国防军事高清,udp://239.10.0.208:1025
CCTV-5+ 体育赛事高清,udp://239.10.0.213:1025
茂名文化生活,udp://239.10.0.236:1025
茂名综合,udp://239.10.0.239:1025
江门综合,udp://239.11.0.69:1025
江门侨乡生活,udp://239.11.0.70:1025
云浮综合,udp://239.11.0.76:1025
云浮文旅,udp://239.11.0.77:1025
佛山南海,udp://239.11.0.91:1025
佛山公共,udp://239.11.0.109:1025
佛山南海,udp://239.11.0.110:1025
佛山顺德,udp://239.11.0.111:1025
佛山影视,udp://239.11.0.112:1025
佛山综合,udp://239.11.0.113:1025
中山综合,udp://239.11.0.119:1025
中山香山文化,udp://239.11.0.120:1025
CHC影迷电影高清,udp://239.11.0.129:1025
茶频道高清,udp://239.11.0.130:1025
广州竞赛高清,udp://239.11.0.142:1025
CCTV-4k超高清4K,udp://239.11.0.161:1025
CCTV-4k超高清4K,udp://239.11.0.162:1025
广州南国都市4K,udp://239.11.0.170:1025
中央新影-发现之旅高清,udp://239.11.0.183:1025
阳江-1,udp://239.11.0.189:1025
阳江-2,udp://239.11.0.190:1025

广东联通,#genre#
CETV-1高清,udp://239.0.1.240:4120
上海纪实高清,udp://239.0.1.242:5111
吉林卫视高清,udp://239.0.1.245:5183
江西卫视高清,udp://239.0.1.244:5166
河北卫视高清,udp://239.0.1.243:8072
福建东南卫视高清,udp://239.0.1.241:5109
高尔夫网球高清,udp://239.0.10.229:5229
CCTV-10科教标清,udp://239.0.1.70:8228
CCTV-10科教高清,udp://239.0.1.98:8116
CCTV-11戏曲标清,udp://239.0.1.71:5400
CCTV-12社会与法标清,udp://239.0.1.72:8232
CCTV-12社会与法高清,udp://239.0.1.99:8124
CCTV-13新闻标清,udp://239.0.1.73:8264
CCTV-14少儿标清,udp://239.0.1.74:8236
CCTV-14少儿高清,udp://239.0.1.100:8132
CCTV-15音乐标清,udp://239.0.1.75:8052
CCTV-1综合标清,udp://239.0.1.65:8080
CCTV-2财经标清,udp://239.0.1.66:8004
CCTV-4中文国际标清,udp://239.0.1.67:8216
CCTV-7军事农业标清,udp://239.0.1.68:8024
CCTV-7军事农业高清,udp://239.0.1.96:8104
CCTV-9纪录标清,udp://239.0.1.69:8032
CCTV-9纪录高清,udp://239.0.1.97:8112
CCTV-NEWS标清,udp://239.0.1.76:8056
CCTV1-高清,udp://239.0.1.3:8008
CCTV2-高清,udp://239.0.1.4:8084
CCTV5高清,udp://239.0.1.101:8004
IPTV5高清,udp://239.0.1.102:4120
TVS1广东经济科教标清,udp://239.0.1.51:5008
TVS1广东经济科教高清,udp://239.0.1.94:5013
TVS2广东南方卫视标清,udp://239.0.1.52:5009
TVS4广东影视标清,udp://239.0.1.54:5011
TVS5广东少儿标清,udp://239.0.1.55:5012
东南卫视标清,udp://239.0.1.26:8112
东方卫视标清,udp://239.0.1.10:8192
东方卫视高清,udp://239.0.1.82:8032
中国教育-1标清,udp://239.0.1.43:4120
云南卫视-标清,udp://239.0.1.23:8108
兵团卫视标清,udp://239.0.1.38:4120
内蒙古卫视标清,udp://239.0.1.31:8176
北京卫视标清,udp://239.0.1.12:8240
北京卫视高清,udp://239.0.1.83:8024
卡酷动画标清,udp://239.0.1.40:9248
厦门卫视标清,udp://239.0.1.46:4120
吉林卫视标清,udp://239.0.1.28:8200
四川卫视-标清,udp://239.0.1.21:8288
四川卫视高清,udp://239.0.1.87:5095
天津卫视标清,udp://239.0.1.13:8144
天津卫视高清,udp://239.0.1.89:1234
宁夏卫视标清,udp://239.0.1.34:8124
安徽卫视标清,udp://239.0.1.11:8272
安徽卫视高清,udp://239.0.1.81:8064
山东卫视标清,udp://239.0.1.14:8148
山东卫视高清,udp://239.0.1.90:8052
山东教育标清,udp://239.0.1.44:5092
山西卫视标清,udp://239.0.1.30:8172
岭南戏曲标清,udp://239.0.1.59:5073
广东体育标清,udp://239.0.1.49:5004
广东体育高清,udp://239.0.1.95:5057
广东公共标清,udp://239.0.1.48:5005
广东南方购物标清,udp://239.0.1.57:5087
广东卫视标清,udp://239.0.1.5:5002
广东卫视高清,udp://239.0.1.1:5001
广东嘉佳卡通标清,udp://239.0.1.56:5007
广东国际标清,udp://239.0.1.50:5100
广东新闻标清,udp://239.0.1.47:5006
广东珠江标清,udp://239.0.1.6:5003
广西卫视标清,udp://239.0.1.27:8300
房产频道标清,udp://239.0.1.60:5072
新疆卫视标清,udp://239.0.1.36:8160
旅游卫视标清,udp://239.0.1.33:8304
江苏卫视高清,udp://239.0.1.80:8028
江西卫视标清,udp://239.0.1.15:8280
河北卫视-标清,udp://239.0.1.25:8292
河南卫视-标清,udp://239.0.1.22:8128
浙江卫视标清,udp://239.0.1.8:8284
浙江卫视高清,udp://239.0.1.79:1234
深圳卫视标清,udp://239.0.1.16:9244
深圳卫视高清,udp://239.0.1.84:8020
湖北卫视-标清,udp://239.0.1.17:8136
湖北卫视高清,udp://239.0.1.88:1234
湖南卫视标清,udp://239.0.1.7:8064
湖南卫视高清,udp://239.0.1.78:8012
炫动卡通标清,udp://239.0.1.42:5090
现代教育标清,udp://239.0.1.61:5103
甘肃卫视标清,udp://239.0.1.37:8188
移动频道标清,udp://239.0.1.63:5101
西藏卫视标清,udp://239.0.1.35:8164
财富天下标清,udp://239.0.1.45:9136
贵州卫视-标清,udp://239.0.1.20:8120
辽宁卫视-标清,udp://239.0.1.18:8116
辽宁卫视高清,udp://239.0.1.85:8056
重庆卫视-标清,udp://239.0.1.24:8296
重庆卫视高清,udp://239.0.1.91:5097
金鹰卡通标清,udp://239.0.1.41:9252
金鹰纪实高清,udp://239.0.1.92:5094
陕西卫视标清,udp://239.0.1.29:8140
青海卫视标清,udp://239.0.1.32:8184
黑龙江卫视-标清,udp://239.0.1.19:8196
黑龙江卫视高清,udp://239.0.1.86:8016
CCTV-3综艺标清,udp://239.0.1.103:5052
CCTV-6电影标清,udp://239.0.1.105:5054
CCTV-8电视剧,udp://239.0.1.106:5055
熊猫频道,udp://239.0.1.173:5178
极K精选-测试,udp://239.0.10.206:5206
CCTV-4高清,udp://239.0.1.180:6040
广西卫视高清,udp://239.0.1.181:6041
CCTV-5体育标清,udp://239.0.1.104:5053
精选频道3,udp://239.0.1.202:5108
精选频道4,udp://239.0.1.203:5107
广东综艺,udp://239.0.1.138:5177
广东珠江高清,udp://239.0.1.133:5172
广东珠江超清,udp://239.0.1.134:5173
CCTV-17农业,udp://239.0.1.192:9264
CETV2,udp://239.0.1.210:4120
CETV4,udp://239.0.1.211:4121
河源公共高清,udp://239.0.1.236:5225
河源公共,udp://239.0.1.237:5226
广东影视4K超高清频道,udp://239.0.1.169:6030
CCTV-3高清测试,udp://239.0.1.177:6037
CCTV-5高清测试,udp://239.0.1.175:6035
CCTV-6高清测试,udp://239.0.1.176:6036
CCTV-8高清测试,udp://239.0.1.174:6034
